^D:\DOCUMENTS\_PORTFOLIO\OBJLOADER LOD\STDAFX.CPP
D:\DOCUMENTS\_PORTFOLIO\OBJLOADER LOD\DEBUG\GRAPHICSTEMPLATE.PCH
D:\DOCUMENTS\_PORTFOLIO\OBJLOADER LOD\DEBUG\VC140.PDB
D:\DOCUMENTS\_PORTFOLIO\OBJLOADER LOD\DEBUG\VC140.IDB
D:\DOCUMENTS\_PORTFOLIO\OBJLOADER LOD\DEBUG\STDAFX.OBJ
^D:\DOCUMENTS\_PORTFOLIO\OBJLOADER LOD\COMLPEXOBJ.CPP|D:\DOCUMENTS\_PORTFOLIO\OBJLOADER LOD\GAMEOBJECT.CPP|D:\DOCUMENTS\_PORTFOLIO\OBJLOADER LOD\GRAPHICSTEMPLATE.CPP|D:\DOCUMENTS\_PORTFOLIO\OBJLOADER LOD\MATERIAL.CPP|D:\DOCUMENTS\_PORTFOLIO\OBJLOADER LOD\OBJREADER.CPP
D:\DOCUMENTS\_PORTFOLIO\OBJLOADER LOD\DEBUG\VC140.PDB
D:\DOCUMENTS\_PORTFOLIO\OBJLOADER LOD\DEBUG\VC140.IDB
D:\DOCUMENTS\_PORTFOLIO\OBJLOADER LOD\DEBUG\COMLPEXOBJ.OBJ
D:\DOCUMENTS\_PORTFOLIO\OBJLOADER LOD\DEBUG\GAMEOBJECT.OBJ
D:\DOCUMENTS\_PORTFOLIO\OBJLOADER LOD\DEBUG\GRAPHICSTEMPLATE.OBJ
D:\DOCUMENTS\_PORTFOLIO\OBJLOADER LOD\DEBUG\MATERIAL.OBJ
D:\DOCUMENTS\_PORTFOLIO\OBJLOADER LOD\DEBUG\OBJREADER.OBJ
^D:\DOCUMENTS\_PORTFOLIO\OBJLOADER LOD\COMLPEXOBJ.CPP
D:\DOCUMENTS\_PORTFOLIO\OBJLOADER LOD\DEBUG\VC140.PDB
^D:\DOCUMENTS\_PORTFOLIO\OBJLOADER LOD\GAMEOBJECT.CPP
D:\DOCUMENTS\_PORTFOLIO\OBJLOADER LOD\DEBUG\VC140.PDB
^D:\DOCUMENTS\_PORTFOLIO\OBJLOADER LOD\GRAPHICSTEMPLATE.CPP
D:\DOCUMENTS\_PORTFOLIO\OBJLOADER LOD\DEBUG\VC140.PDB
^D:\DOCUMENTS\_PORTFOLIO\OBJLOADER LOD\MATERIAL.CPP
D:\DOCUMENTS\_PORTFOLIO\OBJLOADER LOD\DEBUG\VC140.PDB
^D:\DOCUMENTS\_PORTFOLIO\OBJLOADER LOD\OBJREADER.CPP
D:\DOCUMENTS\_PORTFOLIO\OBJLOADER LOD\DEBUG\VC140.PDB
